[
  {
    "outputFileName": "assets/js/app-sga.js",
    "inputFiles": [
      "assets/js/app.js",
      "assets/js/projections.js",
      "assets/js/services/accountService.js",
      "assets/js/services/appService.js",
      "assets/js/services/currentUser.js",
      "assets/js/services/dialogService.js",
      "assets/js/services/loadingService.js",
      "assets/js/services/menuService.js",
      "assets/js/services/messageService.js",
      "assets/js/services/protectedareaService.js",
      "assets/js/services/reportService.js",
      "assets/js/services/searchFactory.js",
      "assets/js/services/sessionService.js",
      "assets/js/services/settingsService.js",
      "assets/js/services/userAccount.js",
      "assets/js/services/userService.js",
      "assets/js/services/mapService.js",
      "assets/js/directives/App/direction.js",
      "assets/js/directives/Location/RoadLocation.js",
      "assets/js/directives/Report/reportboolean.js",
      "assets/js/directives/Report/reportdate.js",
      "assets/js/directives/Report/reportinteger.js",
      "assets/js/directives/Report/reportstring.js",
      "assets/js/directives/contenteditable.js",
      "assets/js/directives/coordinates.js",
      "assets/js/directives/dialogConfirm.js",
      "assets/js/directives/loading.js",
      "assets/js/directives/mapa.js",
      "assets/js/directives/message.js",
      "assets/js/directives/photos.js",
      "assets/js/directives/searchbar.js",
      "assets/js/directives/select.js",
      "assets/js/directives/smartdecimal.js",
      "assets/js/directives/informationMap.js",
      "assets/js/controllers/account/accountController.js",
      "assets/js/controllers/account/accountSearchController.js",
      "assets/js/controllers/app/appAccessRoadController.js",
      "assets/js/controllers/highway/highwayController.js",
      "assets/js/controllers/highway/highwaySearchController.js",
      "assets/js/controllers/highway/shapeController.js",
      "assets/js/controllers/highwayapp/highwayAppController.js",
      "assets/js/controllers/highwayoccupation/highwayAccessRoadController.js",
      "assets/js/controllers/highwayoccupation/highwayAccessRoadSearchController.js",
      "assets/js/controllers/highwayoccupation/roadsideOccupationController.js",
      "assets/js/controllers/highwayoccupation/roadsideOccupationSearchController.js",
      "assets/js/controllers/incidents/elementController.js",
      "assets/js/controllers/incidents/incidentController.js",
      "assets/js/controllers/incidents/incidentSearchController.js",
      "assets/js/controllers/incidents/programController.js",
      "assets/js/controllers/location/directionController.js",
      "assets/js/controllers/location/HighwayWorkSiteController.js",
      "assets/js/controllers/location/roadSideController.js",
      "assets/js/controllers/login/login.js",
      "assets/js/controllers/menu/menuController.js",
      "assets/js/controllers/map/mapController.js",
      "assets/js/controllers/report/reportController.js",
      "assets/js/controllers/treefauna/treeFaunaController.js",
      "assets/js/controllers/forestry/forestryController.js",
      "assets/js/controllers/forestry/forestryParcelController.js"
    ]
  },
  {
    "outputFileName": "assets/js/app-vendor.js",
    "inputFiles": [
      "assets/js/vendor/jquery-2.1.4.min.js",
      "scripts/angular.js",
      "scripts/bootstrap.js",
      "scripts/angular-animate.js",
      "scripts/angular-ui-router.js",
      "scripts/angular-cookies.js",
      "scripts/angular-resource.min.js",
      "scripts/angular-ui/ui-bootstrap-tpls.js",
      "scripts/moment-with-locales.js",
      "scripts/angular-moment.js",
      "scripts/angular-breadcrumb.js",
      "scripts/angular-material.js",
      "scripts/ng-file-upload-all.js",
      "scripts/angular-prompt.js",
      "scripts/angular-animate.js",
      "scripts/angular-aria.js",
      "assets/js/vendor/angular-locale_pt-br.js",
      "assets/js/vendor/nya-bs-select.js",
      "assets/js/vendor/angular-simple-logger.js",
      "assets/js/vendor/leaflet-src.js",
      "assets/js/vendor/ui-leaflet.js",
      "assets/js/vendor/leaflet.draw.js",
      "assets/js/vendor/ng-tags-input.js",
      "assets/js/vendor/angular-bootstrap-lightbox.js",
      "assets/js/vendor/abn_tree_directive.js"
    ]
  },
  {
    "outputFileName": "assets/css/bundle.css",
    "inputFiles": [
      "assets/css/bootstrap.min.css",
      "assets/css/font-awesome.min.css",
      "assets/css/ng-tags-input.css",
      "assets/css/nya-bs-select.css",
      "assets/css/directives.css",
      "assets/css/nya-bs-select.css",
      "assets/css/app.css",
      "assets/css/leaflet.css",
      "Content/angular-material.css",
      "assets/css/abn_tree.css",
      "assets/css/angular-bootstrap-lightbox.css"
    ]
  }
]
